<svg width="15" height="15" viewBox="0 0 15 15" fill="none" xmlns="http://www.w3.org/2000/svg">
<path d="M7.49999 0C4.22499 0 1.44999 2.1 0.424988 5H14.575C13.55 2.1 10.775 0 7.49999 0Z" fill="#F9F9F9"/>
<path d="M7.49999 15C10.775 15 13.55 12.925 14.575 10H0.424988C1.44999 12.925 4.22499 15 7.49999 15Z" fill="#ED4C5C"/>
<path d="M0.425 5C0.15 5.775 0 6.625 0 7.5C0 8.375 0.15 9.225 0.425 10H14.575C14.85 9.225 15 8.375 15 7.5C15 6.625 14.85 5.775 14.575 5H0.425Z" fill="#83BF4F"/>
</svg>
