<svg width="15" height="15" viewBox="0 0 15 15" fill="none" xmlns="http://www.w3.org/2000/svg">
<path d="M3.75 14V1C1.5 2.3 0 4.725 0 7.5C0 10.275 1.5 12.7 3.75 14Z" fill="#699635"/>
<path d="M7.5 0C6.125 0 4.85 0.375 3.75 1V14C4.85 14.65 6.125 15 7.5 15C11.65 15 15 11.65 15 7.5C15 3.35 11.65 0 7.5 0Z" fill="#ED4C5C"/>
<path d="M3.75 4.5C2.1 4.5 0.75 5.85 0.75 7.5C0.75 9.15 2.1 10.5 3.75 10.5C5.4 10.5 6.75 9.15 6.75 7.5C6.75 5.85 5.4 4.5 3.75 4.5ZM3.75 10.125C2.3 10.125 1.125 8.95 1.125 7.5C1.125 6.05 2.3 4.875 3.75 4.875C5.2 4.875 6.375 6.05 6.375 7.5C6.375 8.95 5.2 10.125 3.75 10.125Z" fill="#FFE62E"/>
<path d="M4.77501 10.425C4.72501 10.475 4.65001 10.475 4.60001 10.425L1.17501 5.89999C1.12501 5.84999 1.12501 5.77499 1.17501 5.72499L1.25001 5.64999C1.30001 5.59999 1.37501 5.59999 1.42501 5.64999L4.85001 10.175C4.90001 10.225 4.90001 10.3 4.85001 10.35L4.77501 10.425Z" fill="#FFE62E"/>
<path d="M3.79999 4.375C3.87499 4.375 3.92499 4.425 3.92499 4.5V10.5C3.92499 10.575 3.87499 10.625 3.79999 10.625H3.67499C3.59999 10.625 3.54999 10.575 3.54999 10.5V4.5C3.54999 4.425 3.59999 4.375 3.67499 4.375H3.79999Z" fill="#FFE62E"/>
<path d="M6.725 7.82499L3.75 7.29999V7.67499L6.675 8.19999C6.75 8.19999 6.8 8.17499 6.825 8.09999L6.85 7.97499C6.85 7.92499 6.8 7.84999 6.725 7.82499Z" fill="#FFE62E"/>
<path d="M3.75 7.275L1.4 5.625C1.35 5.575 1.275 5.6 1.225 5.65L1.15 5.75C1.1 5.8 1.125 5.875 1.175 5.925L3.75 7.725V7.275Z" fill="#FFE62E"/>
<path d="M3.65001 7L1.30001 9.35C1.25001 9.4 1.25001 9.475 1.30001 9.525L1.40001 9.625C1.45001 9.675 1.52501 9.675 1.57501 9.625L3.65001 7.55V7Z" fill="#FFE62E"/>
<path d="M3.75 5.875L0.625001 7.35C0.575001 7.375 0.525001 7.45 0.575001 7.525L0.625001 7.65C0.650001 7.7 0.725001 7.75 0.800001 7.7L3.75 6.3V5.875Z" fill="#FFE62E"/>
<path d="M6.52499 6.29999L3.54999 5.77499V6.14999L6.47499 6.67499C6.54999 6.67499 6.59999 6.64999 6.62499 6.57499L6.64999 6.44999C6.62499 6.37499 6.57499 6.29999 6.52499 6.29999Z" fill="#FFE62E"/>
<path d="M3.72501 9.22501C3.67501 9.25001 3.62501 9.32501 3.67501 9.40001L3.72501 9.52501C3.75001 9.57501 3.82501 9.62501 3.90001 9.57501L6.40001 8.42501L6.52501 7.95001L3.72501 9.22501Z" fill="#FFE62E"/>
<path d="M3.72499 8.37501L0.924988 7.35001V7.75001L3.72499 8.77501V8.37501Z" fill="#FFE62E"/>
<path d="M1.77499 9.20001V9.57501L5.47499 9.82501C5.62499 9.72501 5.74999 9.60001 5.87499 9.47501L1.77499 9.20001Z" fill="#FFE62E"/>
<path d="M2.5 6.25V8C2.5 8.7 3.05 9.25 3.75 9.25C4.45 9.25 5 8.7 5 8V6.25H2.5Z" fill="white"/>
<path d="M3.75 9.75C2.775 9.75 2 8.975 2 8V5.75H5.5V8C5.5 8.975 4.725 9.75 3.75 9.75ZM3 6.75V8C3 8.425 3.325 8.75 3.75 8.75C4.175 8.75 4.5 8.425 4.5 8V6.75H3Z" fill="#ED4C5C"/>
<path d="M3.52499 6.85001V7.25001C3.52499 7.32501 3.57499 7.37501 3.64999 7.37501H3.84999C3.92499 7.37501 3.97499 7.32501 3.97499 7.25001V6.82501H3.52499V6.85001Z" fill="#0071BC"/>
<path d="M3.52499 7.47501V7.90001C3.52499 7.97501 3.57499 8.02501 3.64999 8.02501H3.84999C3.92499 8.02501 3.97499 7.97501 3.97499 7.90001V7.47501H3.52499Z" fill="#0071BC"/>
<path d="M3.02499 7.47501V7.90001C3.02499 7.97501 3.07499 8.02501 3.14999 8.02501H3.34999C3.42499 8.02501 3.47499 7.97501 3.47499 7.90001V7.47501H3.02499Z" fill="#0071BC"/>
<path d="M4.02499 7.47501V7.90001C4.02499 7.97501 4.07499 8.02501 4.14999 8.02501H4.34999C4.42499 8.02501 4.47499 7.97501 4.47499 7.90001V7.47501H4.02499Z" fill="#0071BC"/>
<path d="M3.52499 8.07501V8.50001C3.52499 8.57501 3.57499 8.62501 3.64999 8.62501H3.84999C3.92499 8.62501 3.97499 8.57501 3.97499 8.50001V8.07501H3.52499Z" fill="#0071BC"/>
<path d="M3.75001 7.77499C3.77763 7.77499 3.80001 7.7526 3.80001 7.72499C3.80001 7.69737 3.77763 7.67499 3.75001 7.67499C3.7224 7.67499 3.70001 7.69737 3.70001 7.72499C3.70001 7.7526 3.7224 7.77499 3.75001 7.77499Z" fill="white"/>
<path d="M3.65001 7.89999C3.67762 7.89999 3.70001 7.8776 3.70001 7.84999C3.70001 7.82237 3.67762 7.79999 3.65001 7.79999C3.62239 7.79999 3.60001 7.82237 3.60001 7.84999C3.60001 7.8776 3.62239 7.89999 3.65001 7.89999Z" fill="white"/>
<path d="M3.85002 7.89999C3.87763 7.89999 3.90002 7.8776 3.90002 7.84999C3.90002 7.82237 3.87763 7.79999 3.85002 7.79999C3.8224 7.79999 3.80002 7.82237 3.80002 7.84999C3.80002 7.8776 3.8224 7.89999 3.85002 7.89999Z" fill="white"/>
<path d="M3.65001 7.64999C3.67762 7.64999 3.70001 7.6276 3.70001 7.59999C3.70001 7.57237 3.67762 7.54999 3.65001 7.54999C3.62239 7.54999 3.60001 7.57237 3.60001 7.59999C3.60001 7.6276 3.62239 7.64999 3.65001 7.64999Z" fill="white"/>
<path d="M3.85002 7.64999C3.87763 7.64999 3.90002 7.6276 3.90002 7.59999C3.90002 7.57237 3.87763 7.54999 3.85002 7.54999C3.8224 7.54999 3.80002 7.57237 3.80002 7.59999C3.80002 7.6276 3.8224 7.64999 3.85002 7.64999Z" fill="white"/>
<path d="M3.75001 7.14999C3.77763 7.14999 3.80001 7.1276 3.80001 7.09999C3.80001 7.07237 3.77763 7.04999 3.75001 7.04999C3.7224 7.04999 3.70001 7.07237 3.70001 7.09999C3.70001 7.1276 3.7224 7.14999 3.75001 7.14999Z" fill="white"/>
<path d="M3.65001 7.27499C3.67762 7.27499 3.70001 7.2526 3.70001 7.22499C3.70001 7.19737 3.67762 7.17499 3.65001 7.17499C3.62239 7.17499 3.60001 7.19737 3.60001 7.22499C3.60001 7.2526 3.62239 7.27499 3.65001 7.27499Z" fill="white"/>
<path d="M3.85002 7.27499C3.87763 7.27499 3.90002 7.2526 3.90002 7.22499C3.90002 7.19737 3.87763 7.17499 3.85002 7.17499C3.8224 7.17499 3.80002 7.19737 3.80002 7.22499C3.80002 7.2526 3.8224 7.27499 3.85002 7.27499Z" fill="white"/>
<path d="M3.65001 7.02499C3.67762 7.02499 3.70001 7.0026 3.70001 6.97499C3.70001 6.94737 3.67762 6.92499 3.65001 6.92499C3.62239 6.92499 3.60001 6.94737 3.60001 6.97499C3.60001 7.0026 3.62239 7.02499 3.65001 7.02499Z" fill="white"/>
<path d="M3.85002 7.02499C3.87763 7.02499 3.90002 7.0026 3.90002 6.97499C3.90002 6.94737 3.87763 6.92499 3.85002 6.92499C3.8224 6.92499 3.80002 6.94737 3.80002 6.97499C3.80002 7.0026 3.8224 7.02499 3.85002 7.02499Z" fill="white"/>
<path d="M4.25001 7.77499C4.27763 7.77499 4.30001 7.7526 4.30001 7.72499C4.30001 7.69737 4.27763 7.67499 4.25001 7.67499C4.2224 7.67499 4.20001 7.69737 4.20001 7.72499C4.20001 7.7526 4.2224 7.77499 4.25001 7.77499Z" fill="white"/>
<path d="M4.15001 7.89999C4.17762 7.89999 4.20001 7.8776 4.20001 7.84999C4.20001 7.82237 4.17762 7.79999 4.15001 7.79999C4.12239 7.79999 4.10001 7.82237 4.10001 7.84999C4.10001 7.8776 4.12239 7.89999 4.15001 7.89999Z" fill="white"/>
<path d="M4.35002 7.89999C4.37763 7.89999 4.40002 7.8776 4.40002 7.84999C4.40002 7.82237 4.37763 7.79999 4.35002 7.79999C4.3224 7.79999 4.30002 7.82237 4.30002 7.84999C4.30002 7.8776 4.3224 7.89999 4.35002 7.89999Z" fill="white"/>
<path d="M4.15001 7.64999C4.17762 7.64999 4.20001 7.6276 4.20001 7.59999C4.20001 7.57237 4.17762 7.54999 4.15001 7.54999C4.12239 7.54999 4.10001 7.57237 4.10001 7.59999C4.10001 7.6276 4.12239 7.64999 4.15001 7.64999Z" fill="white"/>
<path d="M4.35002 7.64999C4.37763 7.64999 4.40002 7.6276 4.40002 7.59999C4.40002 7.57237 4.37763 7.54999 4.35002 7.54999C4.3224 7.54999 4.30002 7.57237 4.30002 7.59999C4.30002 7.6276 4.3224 7.64999 4.35002 7.64999Z" fill="white"/>
<path d="M3.25001 7.77499C3.27763 7.77499 3.30001 7.7526 3.30001 7.72499C3.30001 7.69737 3.27763 7.67499 3.25001 7.67499C3.2224 7.67499 3.20001 7.69737 3.20001 7.72499C3.20001 7.7526 3.2224 7.77499 3.25001 7.77499Z" fill="white"/>
<path d="M3.15001 7.89999C3.17762 7.89999 3.20001 7.8776 3.20001 7.84999C3.20001 7.82237 3.17762 7.79999 3.15001 7.79999C3.12239 7.79999 3.10001 7.82237 3.10001 7.84999C3.10001 7.8776 3.12239 7.89999 3.15001 7.89999Z" fill="white"/>
<path d="M3.35002 7.89999C3.37763 7.89999 3.40002 7.8776 3.40002 7.84999C3.40002 7.82237 3.37763 7.79999 3.35002 7.79999C3.3224 7.79999 3.30002 7.82237 3.30002 7.84999C3.30002 7.8776 3.3224 7.89999 3.35002 7.89999Z" fill="white"/>
<path d="M3.15001 7.64999C3.17762 7.64999 3.20001 7.6276 3.20001 7.59999C3.20001 7.57237 3.17762 7.54999 3.15001 7.54999C3.12239 7.54999 3.10001 7.57237 3.10001 7.59999C3.10001 7.6276 3.12239 7.64999 3.15001 7.64999Z" fill="white"/>
<path d="M3.35002 7.64999C3.37763 7.64999 3.40002 7.6276 3.40002 7.59999C3.40002 7.57237 3.37763 7.54999 3.35002 7.54999C3.3224 7.54999 3.30002 7.57237 3.30002 7.59999C3.30002 7.6276 3.3224 7.64999 3.35002 7.64999Z" fill="white"/>
<path d="M3.75001 8.39999C3.77763 8.39999 3.80001 8.3776 3.80001 8.34999C3.80001 8.32237 3.77763 8.29999 3.75001 8.29999C3.7224 8.29999 3.70001 8.32237 3.70001 8.34999C3.70001 8.3776 3.7224 8.39999 3.75001 8.39999Z" fill="white"/>
<path d="M3.65001 8.52499C3.67762 8.52499 3.70001 8.5026 3.70001 8.47499C3.70001 8.44737 3.67762 8.42499 3.65001 8.42499C3.62239 8.42499 3.60001 8.44737 3.60001 8.47499C3.60001 8.5026 3.62239 8.52499 3.65001 8.52499Z" fill="white"/>
<path d="M3.85002 8.52499C3.87763 8.52499 3.90002 8.5026 3.90002 8.47499C3.90002 8.44737 3.87763 8.42499 3.85002 8.42499C3.8224 8.42499 3.80002 8.44737 3.80002 8.47499C3.80002 8.5026 3.8224 8.52499 3.85002 8.52499Z" fill="white"/>
<path d="M3.65001 8.27499C3.67762 8.27499 3.70001 8.2526 3.70001 8.22499C3.70001 8.19737 3.67762 8.17499 3.65001 8.17499C3.62239 8.17499 3.60001 8.19737 3.60001 8.22499C3.60001 8.2526 3.62239 8.27499 3.65001 8.27499Z" fill="white"/>
<path d="M3.85002 8.27499C3.87763 8.27499 3.90002 8.2526 3.90002 8.22499C3.90002 8.19737 3.87763 8.17499 3.85002 8.17499C3.8224 8.17499 3.80002 8.19737 3.80002 8.22499C3.80002 8.2526 3.8224 8.27499 3.85002 8.27499Z" fill="white"/>
<path d="M3.5 6.5H4L3.95 6.25V6H4V5.875H3.925V5.95H3.9V5.875H3.825V5.95H3.775V5.875H3.725V5.95H3.675V5.875H3.6V5.95H3.55V5.875H3.5V6H3.55V6.25L3.5 6.5Z" fill="#FFE62E"/>
<path d="M3.82502 6.49998H3.80002V6.39998C3.80002 6.37498 3.77502 6.34998 3.75002 6.34998C3.72502 6.34998 3.70002 6.37498 3.70002 6.39998V6.49998H3.67502V6.39998C3.67502 6.34998 3.70002 6.32498 3.75002 6.32498C3.80002 6.32498 3.82502 6.34998 3.82502 6.39998V6.49998Z" fill="#3E4347"/>
<path d="M3.75001 6.22499H3.60001V6.09999C3.60001 6.04999 3.62501 6.02499 3.67501 6.02499C3.72501 6.02499 3.75001 6.04999 3.75001 6.09999V6.22499ZM3.62501 6.19999H3.72501V6.09999C3.72501 6.07499 3.70001 6.04999 3.67501 6.04999C3.65001 6.04999 3.62501 6.07499 3.62501 6.09999V6.19999Z" fill="#3E4347"/>
<path d="M3.9 6.22499H3.75V6.09999C3.75 6.04999 3.775 6.02499 3.825 6.02499C3.875 6.02499 3.9 6.04999 3.9 6.09999V6.22499ZM3.775 6.19999H3.875V6.09999C3.875 6.07499 3.85 6.04999 3.825 6.04999C3.8 6.04999 3.775 6.07499 3.775 6.09999V6.19999Z" fill="#3E4347"/>
<path d="M2.25 6.5H2.75L2.7 6.25V6H2.75V5.875H2.675V5.95H2.65V5.875H2.575V5.95H2.525V5.875H2.475V5.95H2.425V5.875H2.35V5.95H2.3V5.875H2.25V6H2.3V6.25L2.25 6.5Z" fill="#FFE62E"/>
<path d="M2.57502 6.49998H2.55002V6.39998C2.55002 6.37498 2.52502 6.34998 2.50002 6.34998C2.47502 6.34998 2.45002 6.37498 2.45002 6.39998V6.49998H2.42502V6.39998C2.42502 6.34998 2.45002 6.32498 2.50002 6.32498C2.55002 6.32498 2.57502 6.34998 2.57502 6.39998V6.49998Z" fill="#3E4347"/>
<path d="M2.50001 6.22499H2.35001V6.09999C2.35001 6.04999 2.37501 6.02499 2.42501 6.02499C2.47501 6.02499 2.50001 6.04999 2.50001 6.09999V6.22499ZM2.37501 6.19999H2.47501V6.09999C2.47501 6.07499 2.45001 6.04999 2.42501 6.04999C2.40001 6.04999 2.37501 6.07499 2.37501 6.09999V6.19999Z" fill="#3E4347"/>
<path d="M2.65 6.22499H2.5V6.09999C2.5 6.04999 2.525 6.02499 2.575 6.02499C2.625 6.02499 2.65 6.04999 2.65 6.09999V6.22499ZM2.525 6.19999H2.625V6.09999C2.625 6.07499 2.6 6.04999 2.575 6.04999C2.55 6.04999 2.525 6.07499 2.525 6.09999V6.19999Z" fill="#3E4347"/>
<path d="M2.25 7.97501H2.75L2.7 7.72501V7.47501H2.75V7.35001H2.7V7.42501H2.65V7.35001H2.6V7.42501H2.525V7.35001H2.475V7.42501H2.425V7.35001H2.375V7.42501H2.325V7.35001H2.25V7.47501H2.325V7.72501L2.25 7.97501Z" fill="#FFE62E"/>
<path d="M2.57502 7.97499H2.55002V7.87499C2.55002 7.84999 2.52502 7.82499 2.50002 7.82499C2.47502 7.82499 2.45002 7.84999 2.45002 7.87499V7.97499H2.42502V7.87499C2.42502 7.82499 2.45002 7.79999 2.50002 7.79999C2.55002 7.79999 2.57502 7.82499 2.57502 7.87499V7.97499Z" fill="#3E4347"/>
<path d="M2.50001 7.7H2.35001V7.575C2.35001 7.525 2.37501 7.5 2.42501 7.5C2.47501 7.5 2.50001 7.525 2.50001 7.575V7.7ZM2.37501 7.675H2.47501V7.575C2.47501 7.55 2.45001 7.525 2.42501 7.525C2.40001 7.525 2.37501 7.55 2.37501 7.575V7.675Z" fill="#3E4347"/>
<path d="M2.67499 7.7H2.52499V7.575C2.52499 7.525 2.54999 7.5 2.59999 7.5C2.64999 7.5 2.67499 7.525 2.67499 7.575V7.7ZM2.54999 7.675H2.64999V7.575C2.64999 7.55 2.62499 7.525 2.59999 7.525C2.57499 7.525 2.54999 7.55 2.54999 7.575V7.675Z" fill="#3E4347"/>
<path d="M4.75 7.99999H5.25L5.2 7.74999V7.49999H5.25V7.39999H5.175V7.44999H5.15V7.39999H5.075V7.44999H5.025V7.39999H4.975V7.44999H4.925V7.39999H4.85V7.44999H4.8V7.39999H4.75V7.49999H4.8V7.74999L4.75 7.99999Z" fill="#FFE62E"/>
<path d="M5.07502 7.99998H5.05002V7.89998C5.05002 7.87498 5.02502 7.84998 5.00002 7.84998C4.97502 7.84998 4.95002 7.87498 4.95002 7.89998V7.99998H4.92502V7.89998C4.92502 7.84998 4.95002 7.82498 5.00002 7.82498C5.05002 7.82498 5.07502 7.84998 5.07502 7.89998V7.99998Z" fill="#3E4347"/>
<path d="M5.00001 7.72499H4.85001V7.59999C4.85001 7.54999 4.87501 7.52499 4.92501 7.52499C4.97501 7.52499 5.00001 7.54999 5.00001 7.59999V7.72499ZM4.87501 7.69999H4.97501V7.59999C4.97501 7.57499 4.95001 7.54999 4.92501 7.54999C4.90001 7.54999 4.87501 7.57499 4.87501 7.59999V7.69999Z" fill="#3E4347"/>
<path d="M5.15 7.72499H5V7.59999C5 7.54999 5.025 7.52499 5.075 7.52499C5.125 7.52499 5.15 7.54999 5.15 7.59999V7.72499ZM5.025 7.69999H5.125V7.59999C5.125 7.57499 5.1 7.54999 5.075 7.54999C5.05 7.54999 5.025 7.57499 5.025 7.59999V7.69999Z" fill="#3E4347"/>
<path d="M4.75 6.5H5.25L5.2 6.25V6H5.25V5.875H5.175V5.95H5.15V5.875H5.075V5.95H5.025V5.875H4.975V5.95H4.925V5.875H4.85V5.95H4.8V5.875H4.75V6H4.8V6.25L4.75 6.5Z" fill="#FFE62E"/>
<path d="M5.07502 6.49998H5.05002V6.39998C5.05002 6.37498 5.02502 6.34998 5.00002 6.34998C4.97502 6.34998 4.95002 6.37498 4.95002 6.39998V6.49998H4.92502V6.39998C4.92502 6.34998 4.95002 6.32498 5.00002 6.32498C5.05002 6.32498 5.07502 6.34998 5.07502 6.39998V6.49998Z" fill="#3E4347"/>
<path d="M5.00001 6.22499H4.85001V6.09999C4.85001 6.04999 4.87501 6.02499 4.92501 6.02499C4.97501 6.02499 5.00001 6.04999 5.00001 6.09999V6.22499ZM4.87501 6.19999H4.97501V6.09999C4.97501 6.07499 4.95001 6.04999 4.92501 6.04999C4.90001 6.04999 4.87501 6.07499 4.87501 6.09999V6.19999Z" fill="#3E4347"/>
<path d="M5.15 6.22499H5V6.09999C5 6.04999 5.025 6.02499 5.075 6.02499C5.125 6.02499 5.15 6.04999 5.15 6.09999V6.22499ZM5.025 6.19999H5.125V6.09999C5.125 6.07499 5.1 6.04999 5.075 6.04999C5.05 6.04999 5.025 6.07499 5.025 6.09999V6.19999Z" fill="#3E4347"/>
<path d="M3.05 9.40001L3.4 9.02501L3.175 8.90001L3 8.72501L3.05 8.67501L2.975 8.60001L2.925 8.65001L2.975 8.70001L2.95 8.72501L2.9 8.67501L2.85 8.72501L2.9 8.75001L2.85 8.80001L2.825 8.75001L2.775 8.80001L2.825 8.85001L2.775 8.87501L2.75 8.82501L2.7 8.87501L2.725 8.92501L2.7 8.95001L2.675 8.90001L2.625 8.95001L2.7 9.02501H2.725L2.75 9.00001L2.925 9.17501L3.05 9.40001Z" fill="#FFE62E"/>
<path d="M3.27499 9.14999L3.17499 9.09999C3.14999 9.07499 3.12499 9.07499 3.09999 9.09999C3.07499 9.12499 3.07499 9.14999 3.09999 9.17499L3.17499 9.24999L3.14999 9.27499L3.07499 9.19999C3.04999 9.17499 3.04999 9.12499 3.07499 9.09999C3.09999 9.07499 3.14999 9.07499 3.17499 9.09999L3.27499 9.14999Z" fill="#3E4347"/>
<path d="M3.02499 9.02499L2.92499 9.12499L2.84999 9.04999C2.82499 9.02499 2.82499 8.97499 2.84999 8.94999C2.87499 8.92499 2.92499 8.92499 2.94999 8.94999L3.02499 9.02499ZM2.92499 9.09999L2.99999 9.02499L2.92499 8.94999C2.89999 8.92499 2.87499 8.92499 2.84999 8.94999C2.82499 8.97499 2.82499 8.99999 2.84999 9.02499L2.92499 9.09999Z" fill="#3E4347"/>
<path d="M3.14999 8.89999L3.04999 8.99999L2.97499 8.92499C2.94999 8.89999 2.94999 8.84999 2.97499 8.82499C2.99999 8.79999 3.04999 8.79999 3.07499 8.82499L3.14999 8.89999ZM3.04999 8.97499L3.12499 8.89999L3.04999 8.82499C3.02499 8.79999 2.99999 8.79999 2.97499 8.82499C2.94999 8.84999 2.94999 8.87499 2.97499 8.89999L3.04999 8.97499Z" fill="#3E4347"/>
<path d="M4.45001 9.40001L4.10001 9.02501L4.30001 8.90001L4.47501 8.72501L4.45001 8.67501L4.52501 8.60001L4.57501 8.65001L4.52501 8.70001L4.55001 8.72501L4.60001 8.67501L4.65001 8.72501L4.60001 8.75001L4.65001 8.80001L4.67501 8.75001L4.72501 8.80001L4.67501 8.85001L4.72501 8.87501L4.75001 8.82501L4.80001 8.87501L4.75001 8.92501L4.80001 8.95001L4.82501 8.90001L4.87501 8.95001L4.80001 9.02501H4.77501L4.75001 9.00001L4.57501 9.17501L4.45001 9.40001Z" fill="#FFE62E"/>
<path d="M4.22501 9.14999L4.32501 9.09999C4.35001 9.07499 4.37501 9.07499 4.40001 9.09999C4.42501 9.12499 4.42501 9.14999 4.40001 9.17499L4.30001 9.24999L4.32501 9.27499L4.40001 9.19999C4.42501 9.17499 4.42501 9.12499 4.40001 9.09999C4.37501 9.07499 4.32501 9.07499 4.30001 9.09999L4.22501 9.14999Z" fill="#3E4347"/>
<path d="M4.55001 8.94999C4.57501 8.92499 4.62501 8.92499 4.65001 8.94999C4.67501 8.97499 4.67501 9.02499 4.65001 9.04999L4.57501 9.12499L4.47501 9.02499L4.55001 8.94999ZM4.62501 9.02499C4.65001 8.99999 4.65001 8.97499 4.62501 8.94999C4.60001 8.92499 4.57501 8.92499 4.55001 8.94999L4.50001 9.02499L4.57501 9.09999L4.62501 9.02499Z" fill="#3E4347"/>
<path d="M4.42501 8.82499C4.45001 8.79999 4.50001 8.79999 4.52501 8.82499C4.55001 8.84999 4.55001 8.89999 4.52501 8.92499L4.45001 8.99999L4.35001 8.89999L4.42501 8.82499ZM4.52501 8.89999C4.55001 8.87499 4.55001 8.84999 4.52501 8.82499C4.50001 8.79999 4.47501 8.79999 4.45001 8.82499L4.37501 8.89999L4.45001 8.97499L4.52501 8.89999Z" fill="#3E4347"/>
</svg>
