<svg width="15" height="15" viewBox="0 0 15 15" fill="none" xmlns="http://www.w3.org/2000/svg">
<g clip-path="url(#clip0_93_455)">
<path d="M7.5 15C11.65 15 15 11.65 15 7.5H0C0 11.65 3.35 15 7.5 15Z" fill="#FFE62E"/>
<path d="M7.5 0C3.35 0 0 3.35 0 7.5H15C15 3.35 11.65 0 7.5 0Z" fill="#428BC1"/>
</g>
<defs>
<clipPath id="clip0_93_455">
<rect width="15" height="15" fill="white"/>
</clipPath>
</defs>
</svg>
